<svg viewBox="0 0 1024 1024" xmlns="http://www.w3.org/2000/svg">
  <path fill="white"
    d="M907.776 672.256c9.728-9.728 9.728-25.088 0-34.304l-34.304-34.304c-9.728-9.728-25.088-9.728-34.304 0l-268.8 268.8V24.576c0-13.312-10.752-24.576-24.576-24.576h-48.64c-13.312 0-24.576 10.752-24.576 24.576v846.848L204.8 603.136c-9.728-9.728-25.088-9.728-34.304 0l-34.304 34.304c-9.728 9.728-9.728 25.088 0 34.304L477.696 1013.76c4.608 6.144 11.776 10.24 19.456 10.24h48.64c1.536 0 3.072 0 4.608-0.512h0.512c1.536-0.512 2.56-0.512 4.096-1.024h0.512c3.072-1.024 5.632-3.072 7.68-5.12l344.576-345.088z" />
</svg>
